Visualizing data with R
…
I’ll read the combined data file and demographic information file into two separate objects. I’m using read_csv() instead of read.csv() because the resulting object is prettier when printed out in the console. Similarly, I’ll convert the demographic data into a data_frame from the original data.frame:

library(xlsx)
d <- read_csv("data/3dshapes/master.csv")  # Data
dem <- read.xlsx("data/3dshapes/demographics.xlsx", 
                 sheetIndex = 1, stringsAsFactors = F)  # Demographics
dem <- as_data_frame(dem)

I’ll then remove rows with missing observations, and display the data:

d <- na.omit(d)
d

## # A tibble: 5,093 x 8
##    Subject Trial            Condition  Time response correct angle
##      <int> <int>                <chr> <int>    <chr>   <chr> <int>
## 1        1     1     R2_3_3_2_0Y0.pct  1355      [n]     [n]     0
## 2        1     2  R3_4_3_2_90Y150.pct  2079      [n]     [n]   150
## 3        1     3    2_4_4_2_0Y150.pct  1834      [b]     [b]   150
## 4        1     4    3_3_3_2_0Y100.pct  4780      [b]     [b]   100
## 5        1     5    3_3_3_3_90Y50.pct  1685      [b]     [b]    50
## 6        1     6    R2_4_4_2_0Y50.pct  1237      [n]     [n]    50
## 7        1     7  R3_3_3_3_90Y100.pct  2961      [n]     [n]   100
## 8        1     8      2_3_3_2_0Y0.pct  1275      [b]     [b]     0
## 9        1     9 R3_4_3_3_180Y150.pct  4716      [n]     [n]   150
## 10       1    10  2_4_4_2_180Y150.pct  3794      [n]     [b]   150
## # ... with 5,083 more rows, and 1 more variables: correct.incorrect <int>

I’ll change the variable names to lower case, and rename time to rt, and correct.incorrect to accuracy.

names(d) <- tolower(names(d))
names(dem) <- tolower(names(dem))
names(d)[4] <- "rt"  # time
names(d)[8] <- "accuracy"  # correct.incorrect

We might want to use the participants’ demographic information when drawing the figures. This will be much easier if the information is contained in the same data frame as the actual data, so I’ll join the data frames together:

d <- right_join(dem, d)
d <- select(d, -condition, -response, -correct)  # We don't need these variables
d

## # A tibble: 5,093 x 7
##    subject   age gender trial    rt angle accuracy
##      <dbl> <dbl>  <chr> <int> <int> <int>    <int>
## 1        1    31      M     1  1355     0        1
## 2        1    31      M     2  2079   150        1
## 3        1    31      M     3  1834   150        1
## 4        1    31      M     4  4780   100        1
## 5        1    31      M     5  1685    50        1
## 6        1    31      M     6  1237    50        1
## 7        1    31      M     7  2961   100        1
## 8        1    31      M     8  1275     0        1
## 9        1    31      M     9  4716   150        1
## 10       1    31      M    10  3794   150        0
## # ... with 5,083 more rows
…
